…
## Value

minimally a time stamped linelist dataframe A dataframe containing the
following columns:

- time (ggoutbreak::time_period) - A set of events with a timestamp as a
  `time_period`

Any grouping allowed.

## Examples

``` r
(Sys.Date()+stats::runif(100)*7) %>% linelist()
#> # A tibble: 100 × 1
#>         time
#>    <t[week]>
#>  1     310.9
#>  2       311
#>  3     310.9
#>  4       311
#>  5     310.7
#>  6       311
#>  7     311.1
#>  8     310.8
#>  9     310.2
#> 10     310.8
#> # ℹ 90 more rows
```
